Eenie Meenie Miney Mo - Where Should I Go? – Vivian’s Portfolio
…
linreg <- lm(Price ~ SqFt, data = clean_socal)
  
clean_socal |>
  mutate(
    price_ratio = Price/SqFt,
    pricediff = linreg$residuals
  ) |>
  filter(
    price_ratio >= 1 & price_ratio <= 6,
    pricediff <= 0
  ) |>
  arrange(pricediff)

# A tibble: 177 × 9
   Price  Beds Baths  SqFt Address            Type  County price_ratio pricediff
   <dbl> <dbl> <dbl> <dbl> <chr>              <chr> <chr>        <dbl>     <dbl>
 1  4200     5   4.5  3685 19737 Country Ros… house RIV           1.14    -5903.
 2  3900     4   3    3111 8515 McAlpine Ln,… house RIV           1.25    -4728.
 3  3790     4   3    2950 17346 Cold Spring… house RIV           1.28    -4424.
 4  4100     5   3    2700 4541 Brandi Ln, R… house RIV           1.52    -3472.
 5  4650     5   3    2909 16392 Fair Ridge … house RIV           1.60    -3459.
 6  3395     4   3.5  2100 4054 Boulder Dr, … condo RIV           1.62    -2635.
 7  5000     5   3    2700 2210 Trafalgar Av… house RIV           1.85    -2572.
 8  5300     4   3    2792 2161 S Middlecoff… house OC            1.90    -2508.
 9  3500     3   2.5  2046 1623 Palermo Dr, … house RIV           1.71    -2391.
10  4000     4   2    2200 18590 Roberts Rd,… house RIV           1.82    -2287.
# ℹ 167 more rows
…
